…
```
 Formulae                              
   WT[40, 140] ~ rnorm(muwt, sdwt) | ID
   SEX ~ rbinomial(pfe) | ID           
```

========

```r
set.seed(1133)
data_frame(ID=1:25) %>% mutate_random(cov1)
```

```
# A tibble: 25 × 3
      ID        WT   SEX
   <int>     <dbl> <dbl>
 1     1  72.70968     0
 2     2 113.04180     0
 3     3  48.01491     0
 4     4 136.14602     1
 5     5  45.96462     0
 6     6  49.44370     0
 7     7  53.01213     0
 8     8  58.69607     1
 9     9  90.22743     1
10    10  42.13365     0
# ... with 15 more rows
```
…
